…
Finally we’d like to have a single table with all summaries, so that the species summary is below the list of
populations of each species for the ease of inspection.

-   **Combine the two result data frames into one**

``` r
sum_sum <- pop_sum %>% bind_rows(spec_sum) 
sum_sum
```

    ## # A tibble: 126 x 6
    ## # Groups:   locality [122]
    ##    locality      species      n_ind n_all mean_n_all_ind n_pop
    ##    <chr>         <chr>        <int> <int>          <dbl> <int>
    ##  1 Abanta Gölu   anatolicus       2    29           18      NA
    ##  2 Adapazari     anatolicus       3    36           19.3    NA
    ##  3 Aghios Kosmas ivanbureschi     2    19           16      NA
    ##  4 Alepu         ivanbureschi     3    32           24      NA
    ##  5 Alexandrovo   ivanbureschi     2    22           17.5    NA
    ##  6 Alibahadir2   anatolicus       2    32           20.5    NA
    ##  7 Alistrati     ivanbureschi     2    29           18      NA
    ##  8 Ano Kalliniki macedonicus      2    17           16      NA
    ##  9 Aranđelovac   ivanbureschi     3    25           15      NA
    ## 10 Avdancik      anatolicus       3    37           20.3    NA
    ## # ... with 116 more rows
…
Now, we’ll make use of the fact that `NA` values are put at the end of a
column sorted with `arrange()`, to place summary for each species under
the summaries of its populations:

``` r
sum_sum <- sum_sum %>% arrange(species, locality)
sum_sum
```

    ## # A tibble: 126 x 6
    ## # Groups:   locality [122]
    ##    locality    species    n_ind n_all mean_n_all_ind n_pop
    ##    <chr>       <chr>      <int> <int>          <dbl> <int>
    ##  1 Abanta Gölu anatolicus     2    29           18      NA
    ##  2 Adapazari   anatolicus     3    36           19.3    NA
    ##  3 Alibahadir2 anatolicus     2    32           20.5    NA
    ##  4 Avdancik    anatolicus     3    37           20.3    NA
    ##  5 Çakirli     anatolicus     3    33           18      NA
    ##  6 Çibanköy    anatolicus     3    28           16.7    NA
    ##  7 Gölköy      anatolicus     3    25           17      NA
    ##  8 Gürbulak    anatolicus     2    24           17      NA
    ##  9 Hanköy      anatolicus     3    40           19.7    NA
    ## 10 Karakoç     anatolicus     3    42           22.3    NA
    ## # ... with 116 more rows

And we’d like to replace `NA` in the `Locality` column with the
word “Overall”

    ## # A tibble: 126 x 6
    ## # Groups:   locality [122]
    ##    locality    species    n_ind n_all mean_n_all_ind n_pop
    ##    <chr>       <chr>      <int> <int>          <dbl> <int>
    ##  1 Abanta Gölu anatolicus     2    29           18      NA
    ##  2 Adapazari   anatolicus     3    36           19.3    NA
    ##  3 Alibahadir2 anatolicus     2    32           20.5    NA
    ##  4 Avdancik    anatolicus     3    37           20.3    NA
    ##  5 Çakirli     anatolicus     3    33           18      NA
    ##  6 Çibanköy    anatolicus     3    28           16.7    NA
    ##  7 Gölköy      anatolicus     3    25           17      NA
    ##  8 Gürbulak    anatolicus     2    24           17      NA
    ##  9 Hanköy      anatolicus     3    40           19.7    NA
    ## 10 Karakoç     anatolicus     3    42           22.3    NA
    ## # ... with 116 more rows
…
